digraph model_graph {
  // Dotfile by Django-Extensions graph_models
  // Created: 2016-12-22 12:48
  

  fontname = "Helvetica"
  fontsize = 8
  splines  = true

  node [
    fontname = "Helvetica"
    fontsize = 8
    shape = "plaintext"
  ]

  edge [
    fontname = "Helvetica"
    fontsize = 8
  ]

  // Labels
  subgraph cluster_django_contrib_admin_models {
    label=<
          <TABLE BORDER="0" CELLBORDER="0" CELLSPACING="0">
          <TR><TD COLSPAN="2" CELLPADDING="4" ALIGN="CENTER">
          <FONT FACE="Helvetica Bold" COLOR="Black" POINT-SIZE="12">
          django.contrib.admin
          </FONT>
          </TD></TR>
          </TABLE>
          >
    color=olivedrab4
    style="rounded"
  
    django_contrib_admin_models_LogEntry [label=<
      <TABLE BGCOLOR="palegoldenrod" BORDER="0" CELLBORDER="0" CELLSPACING="0">
      <TR><TD COLSPAN="2" CELLPADDING="4" ALIGN="CENTER" BGCOLOR="olivedrab4">
      <FONT FACE="Helvetica Bold" COLOR="white">
      LogEntry
      </FONT></TD></TR>
    
      <TR><TD ALIGN="LEFT" BORDER="0">
      <FONT FACE="Helvetica Bold">id</FONT>
      </TD><TD ALIGN="LEFT">
      <FONT FACE="Helvetica Bold">AutoField</FONT>
      </TD></TR>
    
      <TR><TD ALIGN="LEFT" BORDER="0">
      <FONT COLOR="#7B7B7B" FACE="Helvetica Bold">content_type</FONT>
      </TD><TD ALIGN="LEFT">
      <FONT COLOR="#7B7B7B" FACE="Helvetica Bold">ForeignKey (id)</FONT>
      </TD></TR>
    
      <TR><TD ALIGN="LEFT" BORDER="0">
      <FONT FACE="Helvetica Bold">user</FONT>
      </TD><TD ALIGN="LEFT">
      <FONT FACE="Helvetica Bold">ForeignKey (id)</FONT>
      </TD></TR>
    
      <TR><TD ALIGN="LEFT" BORDER="0">
      <FONT FACE="Helvetica ">action_flag</FONT>
      </TD><TD ALIGN="LEFT">
      <FONT FACE="Helvetica ">PositiveSmallIntegerField</FONT>
      </TD></TR>
    
      <TR><TD ALIGN="LEFT" BORDER="0">
      <FONT COLOR="#7B7B7B" FACE="Helvetica ">action_time</FONT>
      </TD><TD ALIGN="LEFT">
      <FONT COLOR="#7B7B7B" FACE="Helvetica ">DateTimeField</FONT>
      </TD></TR>
    
      <TR><TD ALIGN="LEFT" BORDER="0">
      <FONT COLOR="#7B7B7B" FACE="Helvetica ">change_message</FONT>
      </TD><TD ALIGN="LEFT">
      <FONT COLOR="#7B7B7B" FACE="Helvetica ">TextField</FONT>
      </TD></TR>
    
      <TR><TD ALIGN="LEFT" BORDER="0">
      <FONT COLOR="#7B7B7B" FACE="Helvetica ">object_id</FONT>
      </TD><TD ALIGN="LEFT">
      <FONT COLOR="#7B7B7B" FACE="Helvetica ">TextField</FONT>
      </TD></TR>
    
      <TR><TD ALIGN="LEFT" BORDER="0">
      <FONT FACE="Helvetica ">object_repr</FONT>
      </TD><TD ALIGN="LEFT">
      <FONT FACE="Helvetica ">CharField</FONT>
      </TD></TR>
    
      </TABLE>
      >]

  }
  subgraph cluster_django_contrib_auth_models {
    label=<
          <TABLE BORDER="0" CELLBORDER="0" CELLSPACING="0">
          <TR><TD COLSPAN="2" CELLPADDING="4" ALIGN="CENTER">
          <FONT FACE="Helvetica Bold" COLOR="Black" POINT-SIZE="12">
          django.contrib.auth
          </FONT>
          </TD></TR>
          </TABLE>
          >
    color=olivedrab4
    style="rounded"
  
    django_contrib_auth_models_AbstractUser [label=<
      <TABLE BGCOLOR="palegoldenrod" BORDER="0" CELLBORDER="0" CELLSPACING="0">
      <TR><TD COLSPAN="2" CELLPADDING="4" ALIGN="CENTER" BGCOLOR="olivedrab4">
      <FONT FACE="Helvetica Bold" COLOR="white">
      AbstractUser<BR/>&lt;<FONT FACE="Helvetica Italic">AbstractBaseUser,PermissionsMixin</FONT>&gt;
      </FONT></TD></TR>
    
      <TR><TD ALIGN="LEFT" BORDER="0">
      <FONT FACE="Helvetica ">date_joined</FONT>
      </TD><TD ALIGN="LEFT">
      <FONT FACE="Helvetica ">DateTimeField</FONT>
      </TD></TR>
    
      <TR><TD ALIGN="LEFT" BORDER="0">
      <FONT COLOR="#7B7B7B" FACE="Helvetica ">email</FONT>
      </TD><TD ALIGN="LEFT">
      <FONT COLOR="#7B7B7B" FACE="Helvetica ">EmailField</FONT>
      </TD></TR>
    
      <TR><TD ALIGN="LEFT" BORDER="0">
      <FONT COLOR="#7B7B7B" FACE="Helvetica ">first_name</FONT>
      </TD><TD ALIGN="LEFT">
      <FONT COLOR="#7B7B7B" FACE="Helvetica ">CharField</FONT>
      </TD></TR>
    
      <TR><TD ALIGN="LEFT" BORDER="0">
      <FONT COLOR="#7B7B7B" FACE="Helvetica ">is_active</FONT>
      </TD><TD ALIGN="LEFT">
      <FONT COLOR="#7B7B7B" FACE="Helvetica ">BooleanField</FONT>
      </TD></TR>
    
      <TR><TD ALIGN="LEFT" BORDER="0">
      <FONT COLOR="#7B7B7B" FACE="Helvetica ">is_staff</FONT>
      </TD><TD ALIGN="LEFT">
      <FONT COLOR="#7B7B7B" FACE="Helvetica ">BooleanField</FONT>
      </TD></TR>
    
      <TR><TD ALIGN="LEFT" BORDER="0">
      <FONT COLOR="#7B7B7B" FACE="Helvetica Italic">is_superuser</FONT>
      </TD><TD ALIGN="LEFT">
      <FONT COLOR="#7B7B7B" FACE="Helvetica Italic">BooleanField</FONT>
      </TD></TR>
    
      <TR><TD ALIGN="LEFT" BORDER="0">
      <FONT FACE="Helvetica Italic">last_login</FONT>
      </TD><TD ALIGN="LEFT">
      <FONT FACE="Helvetica Italic">DateTimeField</FONT>
      </TD></TR>
    
      <TR><TD ALIGN="LEFT" BORDER="0">
      <FONT COLOR="#7B7B7B" FACE="Helvetica ">last_name</FONT>
      </TD><TD ALIGN="LEFT">
      <FONT COLOR="#7B7B7B" FACE="Helvetica ">CharField</FONT>
      </TD></TR>
    
      <TR><TD ALIGN="LEFT" BORDER="0">
      <FONT FACE="Helvetica Italic">password</FONT>
      </TD><TD ALIGN="LEFT">
      <FONT FACE="Helvetica Italic">CharField</FONT>
      </TD></TR>
    
      <TR><TD ALIGN="LEFT" BORDER="0">
      <FONT FACE="Helvetica ">username</FONT>
      </TD><TD ALIGN="LEFT">
      <FONT FACE="Helvetica ">CharField</FONT>
      </TD></TR>
    
      </TABLE>
      >]
  
    django_contrib_auth_models_Permission [label=<
      <TABLE BGCOLOR="palegoldenrod" BORDER="0" CELLBORDER="0" CELLSPACING="0">
      <TR><TD COLSPAN="2" CELLPADDING="4" ALIGN="CENTER" BGCOLOR="olivedrab4">
      <FONT FACE="Helvetica Bold" COLOR="white">
      Permission
      </FONT></TD></TR>
    
      <TR><TD ALIGN="LEFT" BORDER="0">
      <FONT FACE="Helvetica Bold">id</FONT>
      </TD><TD ALIGN="LEFT">
      <FONT FACE="Helvetica Bold">AutoField</FONT>
      </TD></TR>
    
      <TR><TD ALIGN="LEFT" BORDER="0">
      <FONT FACE="Helvetica Bold">content_type</FONT>
      </TD><TD ALIGN="LEFT">
      <FONT FACE="Helvetica Bold">ForeignKey (id)</FONT>
      </TD></TR>
    
      <TR><TD ALIGN="LEFT" BORDER="0">
      <FONT FACE="Helvetica ">codename</FONT>
      </TD><TD ALIGN="LEFT">
      <FONT FACE="Helvetica ">CharField</FONT>
      </TD></TR>
    
      <TR><TD ALIGN="LEFT" BORDER="0">
      <FONT FACE="Helvetica ">name</FONT>
      </TD><TD ALIGN="LEFT">
      <FONT FACE="Helvetica ">CharField</FONT>
      </TD></TR>
    
      </TABLE>
      >]
  
    django_contrib_auth_models_Group [label=<
      <TABLE BGCOLOR="palegoldenrod" BORDER="0" CELLBORDER="0" CELLSPACING="0">
      <TR><TD COLSPAN="2" CELLPADDING="4" ALIGN="CENTER" BGCOLOR="olivedrab4">
      <FONT FACE="Helvetica Bold" COLOR="white">
      Group
      </FONT></TD></TR>
    
      <TR><TD ALIGN="LEFT" BORDER="0">
      <FONT FACE="Helvetica Bold">id</FONT>
      </TD><TD ALIGN="LEFT">
      <FONT FACE="Helvetica Bold">AutoField</FONT>
      </TD></TR>
    
      <TR><TD ALIGN="LEFT" BORDER="0">
      <FONT FACE="Helvetica ">name</FONT>
      </TD><TD ALIGN="LEFT">
      <FONT FACE="Helvetica ">CharField</FONT>
      </TD></TR>
    
      </TABLE>
      >]
  
    django_contrib_auth_models_User [label=<
      <TABLE BGCOLOR="palegoldenrod" BORDER="0" CELLBORDER="0" CELLSPACING="0">
      <TR><TD COLSPAN="2" CELLPADDING="4" ALIGN="CENTER" BGCOLOR="olivedrab4">
      <FONT FACE="Helvetica Bold" COLOR="white">
      User<BR/>&lt;<FONT FACE="Helvetica Italic">AbstractUser</FONT>&gt;
      </FONT></TD></TR>
    
      <TR><TD ALIGN="LEFT" BORDER="0">
      <FONT FACE="Helvetica Bold">id</FONT>
      </TD><TD ALIGN="LEFT">
      <FONT FACE="Helvetica Bold">AutoField</FONT>
      </TD></TR>
    
      <TR><TD ALIGN="LEFT" BORDER="0">
      <FONT FACE="Helvetica Italic">date_joined</FONT>
      </TD><TD ALIGN="LEFT">
      <FONT FACE="Helvetica Italic">DateTimeField</FONT>
      </TD></TR>
    
      <TR><TD ALIGN="LEFT" BORDER="0">
      <FONT COLOR="#7B7B7B" FACE="Helvetica Italic">email</FONT>
      </TD><TD ALIGN="LEFT">
      <FONT COLOR="#7B7B7B" FACE="Helvetica Italic">EmailField</FONT>
      </TD></TR>
    
      <TR><TD ALIGN="LEFT" BORDER="0">
      <FONT COLOR="#7B7B7B" FACE="Helvetica Italic">first_name</FONT>
      </TD><TD ALIGN="LEFT">
      <FONT COLOR="#7B7B7B" FACE="Helvetica Italic">CharField</FONT>
      </TD></TR>
    
      <TR><TD ALIGN="LEFT" BORDER="0">
      <FONT COLOR="#7B7B7B" FACE="Helvetica Italic">is_active</FONT>
      </TD><TD ALIGN="LEFT">
      <FONT COLOR="#7B7B7B" FACE="Helvetica Italic">BooleanField</FONT>
      </TD></TR>
    
      <TR><TD ALIGN="LEFT" BORDER="0">
      <FONT COLOR="#7B7B7B" FACE="Helvetica Italic">is_staff</FONT>
      </TD><TD ALIGN="LEFT">
      <FONT COLOR="#7B7B7B" FACE="Helvetica Italic">BooleanField</FONT>
      </TD></TR>
    
      <TR><TD ALIGN="LEFT" BORDER="0">
      <FONT COLOR="#7B7B7B" FACE="Helvetica Italic">is_superuser</FONT>
      </TD><TD ALIGN="LEFT">
      <FONT COLOR="#7B7B7B" FACE="Helvetica Italic">BooleanField</FONT>
      </TD></TR>
    
      <TR><TD ALIGN="LEFT" BORDER="0">
      <FONT FACE="Helvetica Italic">last_login</FONT>
      </TD><TD ALIGN="LEFT">
      <FONT FACE="Helvetica Italic">DateTimeField</FONT>
      </TD></TR>
    
      <TR><TD ALIGN="LEFT" BORDER="0">
      <FONT COLOR="#7B7B7B" FACE="Helvetica Italic">last_name</FONT>
      </TD><TD ALIGN="LEFT">
      <FONT COLOR="#7B7B7B" FACE="Helvetica Italic">CharField</FONT>
      </TD></TR>
    
      <TR><TD ALIGN="LEFT" BORDER="0">
      <FONT FACE="Helvetica Italic">password</FONT>
      </TD><TD ALIGN="LEFT">
      <FONT FACE="Helvetica Italic">CharField</FONT>
      </TD></TR>
    
      <TR><TD ALIGN="LEFT" BORDER="0">
      <FONT FACE="Helvetica Italic">username</FONT>
      </TD><TD ALIGN="LEFT">
      <FONT FACE="Helvetica Italic">CharField</FONT>
      </TD></TR>
    
      </TABLE>
      >]

  }
  subgraph cluster_django_contrib_contenttypes_models {
    label=<
          <TABLE BORDER="0" CELLBORDER="0" CELLSPACING="0">
          <TR><TD COLSPAN="2" CELLPADDING="4" ALIGN="CENTER">
          <FONT FACE="Helvetica Bold" COLOR="Black" POINT-SIZE="12">
          django.contrib.contenttypes
          </FONT>
          </TD></TR>
          </TABLE>
          >
    color=olivedrab4
    style="rounded"
  
    django_contrib_contenttypes_models_ContentType [label=<
      <TABLE BGCOLOR="palegoldenrod" BORDER="0" CELLBORDER="0" CELLSPACING="0">
      <TR><TD COLSPAN="2" CELLPADDING="4" ALIGN="CENTER" BGCOLOR="olivedrab4">
      <FONT FACE="Helvetica Bold" COLOR="white">
      ContentType
      </FONT></TD></TR>
    
      <TR><TD ALIGN="LEFT" BORDER="0">
      <FONT FACE="Helvetica Bold">id</FONT>
      </TD><TD ALIGN="LEFT">
      <FONT FACE="Helvetica Bold">AutoField</FONT>
      </TD></TR>
    
      <TR><TD ALIGN="LEFT" BORDER="0">
      <FONT FACE="Helvetica ">app_label</FONT>
      </TD><TD ALIGN="LEFT">
      <FONT FACE="Helvetica ">CharField</FONT>
      </TD></TR>
    
      <TR><TD ALIGN="LEFT" BORDER="0">
      <FONT FACE="Helvetica ">model</FONT>
      </TD><TD ALIGN="LEFT">
      <FONT FACE="Helvetica ">CharField</FONT>
      </TD></TR>
    
      <TR><TD ALIGN="LEFT" BORDER="0">
      <FONT FACE="Helvetica ">name</FONT>
      </TD><TD ALIGN="LEFT">
      <FONT FACE="Helvetica ">CharField</FONT>
      </TD></TR>
    
      </TABLE>
      >]

  }
  subgraph cluster_django_contrib_sessions_models {
    label=<
          <TABLE BORDER="0" CELLBORDER="0" CELLSPACING="0">
          <TR><TD COLSPAN="2" CELLPADDING="4" ALIGN="CENTER">
          <FONT FACE="Helvetica Bold" COLOR="Black" POINT-SIZE="12">
          django.contrib.sessions
          </FONT>
          </TD></TR>
          </TABLE>
          >
    color=olivedrab4
    style="rounded"
  
    django_contrib_sessions_models_Session [label=<
      <TABLE BGCOLOR="palegoldenrod" BORDER="0" CELLBORDER="0" CELLSPACING="0">
      <TR><TD COLSPAN="2" CELLPADDING="4" ALIGN="CENTER" BGCOLOR="olivedrab4">
      <FONT FACE="Helvetica Bold" COLOR="white">
      Session
      </FONT></TD></TR>
    
      <TR><TD ALIGN="LEFT" BORDER="0">
      <FONT FACE="Helvetica Bold">session_key</FONT>
      </TD><TD ALIGN="LEFT">
      <FONT FACE="Helvetica Bold">CharField</FONT>
      </TD></TR>
    
      <TR><TD ALIGN="LEFT" BORDER="0">
      <FONT FACE="Helvetica ">expire_date</FONT>
      </TD><TD ALIGN="LEFT">
      <FONT FACE="Helvetica ">DateTimeField</FONT>
      </TD></TR>
    
      <TR><TD ALIGN="LEFT" BORDER="0">
      <FONT FACE="Helvetica ">session_data</FONT>
      </TD><TD ALIGN="LEFT">
      <FONT FACE="Helvetica ">TextField</FONT>
      </TD></TR>
    
      </TABLE>
      >]

  }
  subgraph cluster_IBMauth_models {
    label=<
          <TABLE BORDER="0" CELLBORDER="0" CELLSPACING="0">
          <TR><TD COLSPAN="2" CELLPADDING="4" ALIGN="CENTER">
          <FONT FACE="Helvetica Bold" COLOR="Black" POINT-SIZE="12">
          IBMauth
          </FONT>
          </TD></TR>
          </TABLE>
          >
    color=olivedrab4
    style="rounded"
  
    IBMauth_models_NamedModel [label=<
      <TABLE BGCOLOR="palegoldenrod" BORDER="0" CELLBORDER="0" CELLSPACING="0">
      <TR><TD COLSPAN="2" CELLPADDING="4" ALIGN="CENTER" BGCOLOR="olivedrab4">
      <FONT FACE="Helvetica Bold" COLOR="white">
      NamedModel
      </FONT></TD></TR>
    
      <TR><TD ALIGN="LEFT" BORDER="0">
      <FONT FACE="Helvetica ">name</FONT>
      </TD><TD ALIGN="LEFT">
      <FONT FACE="Helvetica ">CharField</FONT>
      </TD></TR>
    
      </TABLE>
      >]
  
    IBMauth_models_Contact [label=<
      <TABLE BGCOLOR="palegoldenrod" BORDER="0" CELLBORDER="0" CELLSPACING="0">
      <TR><TD COLSPAN="2" CELLPADDING="4" ALIGN="CENTER" BGCOLOR="olivedrab4">
      <FONT FACE="Helvetica Bold" COLOR="white">
      Contact
      </FONT></TD></TR>
    
      <TR><TD ALIGN="LEFT" BORDER="0">
      <FONT FACE="Helvetica Bold">id</FONT>
      </TD><TD ALIGN="LEFT">
      <FONT FACE="Helvetica Bold">AutoField</FONT>
      </TD></TR>
    
      <TR><TD ALIGN="LEFT" BORDER="0">
      <FONT COLOR="#7B7B7B" FACE="Helvetica Bold">user</FONT>
      </TD><TD ALIGN="LEFT">
      <FONT COLOR="#7B7B7B" FACE="Helvetica Bold">ForeignKey (id)</FONT>
      </TD></TR>
    
      <TR><TD ALIGN="LEFT" BORDER="0">
      <FONT COLOR="#7B7B7B" FACE="Helvetica ">title</FONT>
      </TD><TD ALIGN="LEFT">
      <FONT COLOR="#7B7B7B" FACE="Helvetica ">CharField</FONT>
      </TD></TR>
    
      </TABLE>
      >]
  
    IBMauth_models_ContactType [label=<
      <TABLE BGCOLOR="palegoldenrod" BORDER="0" CELLBORDER="0" CELLSPACING="0">
      <TR><TD COLSPAN="2" CELLPADDING="4" ALIGN="CENTER" BGCOLOR="olivedrab4">
      <FONT FACE="Helvetica Bold" COLOR="white">
      ContactType<BR/>&lt;<FONT FACE="Helvetica Italic">NamedModel</FONT>&gt;
      </FONT></TD></TR>
    
      <TR><TD ALIGN="LEFT" BORDER="0">
      <FONT FACE="Helvetica Bold">id</FONT>
      </TD><TD ALIGN="LEFT">
      <FONT FACE="Helvetica Bold">AutoField</FONT>
      </TD></TR>
    
      <TR><TD ALIGN="LEFT" BORDER="0">
      <FONT FACE="Helvetica Italic">name</FONT>
      </TD><TD ALIGN="LEFT">
      <FONT FACE="Helvetica Italic">CharField</FONT>
      </TD></TR>
    
      </TABLE>
      >]
  
    IBMauth_models_JobFunction [label=<
      <TABLE BGCOLOR="palegoldenrod" BORDER="0" CELLBORDER="0" CELLSPACING="0">
      <TR><TD COLSPAN="2" CELLPADDING="4" ALIGN="CENTER" BGCOLOR="olivedrab4">
      <FONT FACE="Helvetica Bold" COLOR="white">
      JobFunction<BR/>&lt;<FONT FACE="Helvetica Italic">NamedModel</FONT>&gt;
      </FONT></TD></TR>
    
      <TR><TD ALIGN="LEFT" BORDER="0">
      <FONT FACE="Helvetica Bold">id</FONT>
      </TD><TD ALIGN="LEFT">
      <FONT FACE="Helvetica Bold">AutoField</FONT>
      </TD></TR>
    
      <TR><TD ALIGN="LEFT" BORDER="0">
      <FONT FACE="Helvetica Bold">contact_type</FONT>
      </TD><TD ALIGN="LEFT">
      <FONT FACE="Helvetica Bold">ForeignKey (id)</FONT>
      </TD></TR>
    
      <TR><TD ALIGN="LEFT" BORDER="0">
      <FONT FACE="Helvetica Italic">name</FONT>
      </TD><TD ALIGN="LEFT">
      <FONT FACE="Helvetica Italic">CharField</FONT>
      </TD></TR>
    
      </TABLE>
      >]
  
    IBMauth_models_JoinProjectRequest [label=<
      <TABLE BGCOLOR="palegoldenrod" BORDER="0" CELLBORDER="0" CELLSPACING="0">
      <TR><TD COLSPAN="2" CELLPADDING="4" ALIGN="CENTER" BGCOLOR="olivedrab4">
      <FONT FACE="Helvetica Bold" COLOR="white">
      JoinProjectRequest
      </FONT></TD></TR>
    
      <TR><TD ALIGN="LEFT" BORDER="0">
      <FONT FACE="Helvetica Bold">id</FONT>
      </TD><TD ALIGN="LEFT">
      <FONT FACE="Helvetica Bold">AutoField</FONT>
      </TD></TR>
    
      <TR><TD ALIGN="LEFT" BORDER="0">
      <FONT FACE="Helvetica Bold">group</FONT>
      </TD><TD ALIGN="LEFT">
      <FONT FACE="Helvetica Bold">ForeignKey (id)</FONT>
      </TD></TR>
    
      <TR><TD ALIGN="LEFT" BORDER="0">
      <FONT FACE="Helvetica Bold">user</FONT>
      </TD><TD ALIGN="LEFT">
      <FONT FACE="Helvetica Bold">ForeignKey (id)</FONT>
      </TD></TR>
    
      <TR><TD ALIGN="LEFT" BORDER="0">
      <FONT COLOR="#7B7B7B" FACE="Helvetica ">approved</FONT>
      </TD><TD ALIGN="LEFT">
      <FONT COLOR="#7B7B7B" FACE="Helvetica ">BooleanField</FONT>
      </TD></TR>
    
      </TABLE>
      >]

  }
  subgraph cluster_CTAFramework_models {
    label=<
          <TABLE BORDER="0" CELLBORDER="0" CELLSPACING="0">
          <TR><TD COLSPAN="2" CELLPADDING="4" ALIGN="CENTER">
          <FONT FACE="Helvetica Bold" COLOR="Black" POINT-SIZE="12">
          CTAFramework
          </FONT>
          </TD></TR>
          </TABLE>
          >
    color=olivedrab4
    style="rounded"
  
    CTAFramework_models_Product [label=<
      <TABLE BGCOLOR="palegoldenrod" BORDER="0" CELLBORDER="0" CELLSPACING="0">
      <TR><TD COLSPAN="2" CELLPADDING="4" ALIGN="CENTER" BGCOLOR="olivedrab4">
      <FONT FACE="Helvetica Bold" COLOR="white">
      Product
      </FONT></TD></TR>
    
      <TR><TD ALIGN="LEFT" BORDER="0">
      <FONT FACE="Helvetica Bold">id</FONT>
      </TD><TD ALIGN="LEFT">
      <FONT FACE="Helvetica Bold">AutoField</FONT>
      </TD></TR>
    
      <TR><TD ALIGN="LEFT" BORDER="0">
      <FONT FACE="Helvetica Bold">robot_version</FONT>
      </TD><TD ALIGN="LEFT">
      <FONT FACE="Helvetica Bold">ForeignKey (id)</FONT>
      </TD></TR>
    
      <TR><TD ALIGN="LEFT" BORDER="0">
      <FONT COLOR="#7B7B7B" FACE="Helvetica ">deprecated</FONT>
      </TD><TD ALIGN="LEFT">
      <FONT COLOR="#7B7B7B" FACE="Helvetica ">BooleanField</FONT>
      </TD></TR>
    
      <TR><TD ALIGN="LEFT" BORDER="0">
      <FONT FACE="Helvetica ">name</FONT>
      </TD><TD ALIGN="LEFT">
      <FONT FACE="Helvetica ">CharField</FONT>
      </TD></TR>
    
      </TABLE>
      >]
  
    CTAFramework_models_Phase [label=<
      <TABLE BGCOLOR="palegoldenrod" BORDER="0" CELLBORDER="0" CELLSPACING="0">
      <TR><TD COLSPAN="2" CELLPADDING="4" ALIGN="CENTER" BGCOLOR="olivedrab4">
      <FONT FACE="Helvetica Bold" COLOR="white">
      Phase
      </FONT></TD></TR>
    
      <TR><TD ALIGN="LEFT" BORDER="0">
      <FONT FACE="Helvetica Bold">id</FONT>
      </TD><TD ALIGN="LEFT">
      <FONT FACE="Helvetica Bold">AutoField</FONT>
      </TD></TR>
    
      <TR><TD ALIGN="LEFT" BORDER="0">
      <FONT FACE="Helvetica Bold">product</FONT>
      </TD><TD ALIGN="LEFT">
      <FONT FACE="Helvetica Bold">ForeignKey (id)</FONT>
      </TD></TR>
    
      <TR><TD ALIGN="LEFT" BORDER="0">
      <FONT FACE="Helvetica ">name</FONT>
      </TD><TD ALIGN="LEFT">
      <FONT FACE="Helvetica ">CharField</FONT>
      </TD></TR>
    
      </TABLE>
      >]
  
    CTAFramework_models_RobotFramework [label=<
      <TABLE BGCOLOR="palegoldenrod" BORDER="0" CELLBORDER="0" CELLSPACING="0">
      <TR><TD COLSPAN="2" CELLPADDING="4" ALIGN="CENTER" BGCOLOR="olivedrab4">
      <FONT FACE="Helvetica Bold" COLOR="white">
      RobotFramework
      </FONT></TD></TR>
    
      <TR><TD ALIGN="LEFT" BORDER="0">
      <FONT FACE="Helvetica Bold">id</FONT>
      </TD><TD ALIGN="LEFT">
      <FONT FACE="Helvetica Bold">AutoField</FONT>
      </TD></TR>
    
      <TR><TD ALIGN="LEFT" BORDER="0">
      <FONT FACE="Helvetica ">version</FONT>
      </TD><TD ALIGN="LEFT">
      <FONT FACE="Helvetica ">CharField</FONT>
      </TD></TR>
    
      </TABLE>
      >]

  }
  subgraph cluster_testing_models {
    label=<
          <TABLE BORDER="0" CELLBORDER="0" CELLSPACING="0">
          <TR><TD COLSPAN="2" CELLPADDING="4" ALIGN="CENTER">
          <FONT FACE="Helvetica Bold" COLOR="Black" POINT-SIZE="12">
          testing
          </FONT>
          </TD></TR>
          </TABLE>
          >
    color=olivedrab4
    style="rounded"
  
    testing_models_Command [label=<
      <TABLE BGCOLOR="palegoldenrod" BORDER="0" CELLBORDER="0" CELLSPACING="0">
      <TR><TD COLSPAN="2" CELLPADDING="4" ALIGN="CENTER" BGCOLOR="olivedrab4">
      <FONT FACE="Helvetica Bold" COLOR="white">
      Command
      </FONT></TD></TR>
    
      <TR><TD ALIGN="LEFT" BORDER="0">
      <FONT FACE="Helvetica Bold">id</FONT>
      </TD><TD ALIGN="LEFT">
      <FONT FACE="Helvetica Bold">AutoField</FONT>
      </TD></TR>
    
      <TR><TD ALIGN="LEFT" BORDER="0">
      <FONT COLOR="#7B7B7B" FACE="Helvetica ">build_range</FONT>
      </TD><TD ALIGN="LEFT">
      <FONT COLOR="#7B7B7B" FACE="Helvetica ">CharField</FONT>
      </TD></TR>
    
      <TR><TD ALIGN="LEFT" BORDER="0">
      <FONT COLOR="#7B7B7B" FACE="Helvetica ">help_text</FONT>
      </TD><TD ALIGN="LEFT">
      <FONT COLOR="#7B7B7B" FACE="Helvetica ">TextField</FONT>
      </TD></TR>
    
      <TR><TD ALIGN="LEFT" BORDER="0">
      <FONT COLOR="#7B7B7B" FACE="Helvetica ">manual_update</FONT>
      </TD><TD ALIGN="LEFT">
      <FONT COLOR="#7B7B7B" FACE="Helvetica ">BooleanField</FONT>
      </TD></TR>
    
      <TR><TD ALIGN="LEFT" BORDER="0">
      <FONT FACE="Helvetica ">name</FONT>
      </TD><TD ALIGN="LEFT">
      <FONT FACE="Helvetica ">CharField</FONT>
      </TD></TR>
    
      <TR><TD ALIGN="LEFT" BORDER="0">
      <FONT COLOR="#7B7B7B" FACE="Helvetica ">system_command</FONT>
      </TD><TD ALIGN="LEFT">
      <FONT COLOR="#7B7B7B" FACE="Helvetica ">BooleanField</FONT>
      </TD></TR>
    
      <TR><TD ALIGN="LEFT" BORDER="0">
      <FONT COLOR="#7B7B7B" FACE="Helvetica ">translate</FONT>
      </TD><TD ALIGN="LEFT">
      <FONT COLOR="#7B7B7B" FACE="Helvetica ">CharField</FONT>
      </TD></TR>
    
      <TR><TD ALIGN="LEFT" BORDER="0">
      <FONT COLOR="#7B7B7B" FACE="Helvetica ">workaround</FONT>
      </TD><TD ALIGN="LEFT">
      <FONT COLOR="#7B7B7B" FACE="Helvetica ">CharField</FONT>
      </TD></TR>
    
      </TABLE>
      >]
  
    testing_models_CommandOption [label=<
      <TABLE BGCOLOR="palegoldenrod" BORDER="0" CELLBORDER="0" CELLSPACING="0">
      <TR><TD COLSPAN="2" CELLPADDING="4" ALIGN="CENTER" BGCOLOR="olivedrab4">
      <FONT FACE="Helvetica Bold" COLOR="white">
      CommandOption
      </FONT></TD></TR>
    
      <TR><TD ALIGN="LEFT" BORDER="0">
      <FONT FACE="Helvetica Bold">id</FONT>
      </TD><TD ALIGN="LEFT">
      <FONT FACE="Helvetica Bold">AutoField</FONT>
      </TD></TR>
    
      <TR><TD ALIGN="LEFT" BORDER="0">
      <FONT FACE="Helvetica Bold">command</FONT>
      </TD><TD ALIGN="LEFT">
      <FONT FACE="Helvetica Bold">ForeignKey (id)</FONT>
      </TD></TR>
    
      <TR><TD ALIGN="LEFT" BORDER="0">
      <FONT COLOR="#7B7B7B" FACE="Helvetica ">dependent_of</FONT>
      </TD><TD ALIGN="LEFT">
      <FONT COLOR="#7B7B7B" FACE="Helvetica ">TextField</FONT>
      </TD></TR>
    
      <TR><TD ALIGN="LEFT" BORDER="0">
      <FONT COLOR="#7B7B7B" FACE="Helvetica ">expected</FONT>
      </TD><TD ALIGN="LEFT">
      <FONT COLOR="#7B7B7B" FACE="Helvetica ">CharField</FONT>
      </TD></TR>
    
      <TR><TD ALIGN="LEFT" BORDER="0">
      <FONT COLOR="#7B7B7B" FACE="Helvetica ">help_text</FONT>
      </TD><TD ALIGN="LEFT">
      <FONT COLOR="#7B7B7B" FACE="Helvetica ">TextField</FONT>
      </TD></TR>
    
      <TR><TD ALIGN="LEFT" BORDER="0">
      <FONT COLOR="#7B7B7B" FACE="Helvetica ">incompatibility</FONT>
      </TD><TD ALIGN="LEFT">
      <FONT COLOR="#7B7B7B" FACE="Helvetica ">TextField</FONT>
      </TD></TR>
    
      <TR><TD ALIGN="LEFT" BORDER="0">
      <FONT COLOR="#7B7B7B" FACE="Helvetica ">mandatory</FONT>
      </TD><TD ALIGN="LEFT">
      <FONT COLOR="#7B7B7B" FACE="Helvetica ">BooleanField</FONT>
      </TD></TR>
    
      <TR><TD ALIGN="LEFT" BORDER="0">
      <FONT FACE="Helvetica ">option</FONT>
      </TD><TD ALIGN="LEFT">
      <FONT FACE="Helvetica ">CharField</FONT>
      </TD></TR>
    
      <TR><TD ALIGN="LEFT" BORDER="0">
      <FONT COLOR="#7B7B7B" FACE="Helvetica ">position</FONT>
      </TD><TD ALIGN="LEFT">
      <FONT COLOR="#7B7B7B" FACE="Helvetica ">IntegerField</FONT>
      </TD></TR>
    
      <TR><TD ALIGN="LEFT" BORDER="0">
      <FONT COLOR="#7B7B7B" FACE="Helvetica ">prefix</FONT>
      </TD><TD ALIGN="LEFT">
      <FONT COLOR="#7B7B7B" FACE="Helvetica ">CharField</FONT>
      </TD></TR>
    
      <TR><TD ALIGN="LEFT" BORDER="0">
      <FONT COLOR="#7B7B7B" FACE="Helvetica ">suffix</FONT>
      </TD><TD ALIGN="LEFT">
      <FONT COLOR="#7B7B7B" FACE="Helvetica ">BooleanField</FONT>
      </TD></TR>
    
      </TABLE>
      >]
  
    testing_models_CommandRule [label=<
      <TABLE BGCOLOR="palegoldenrod" BORDER="0" CELLBORDER="0" CELLSPACING="0">
      <TR><TD COLSPAN="2" CELLPADDING="4" ALIGN="CENTER" BGCOLOR="olivedrab4">
      <FONT FACE="Helvetica Bold" COLOR="white">
      CommandRule
      </FONT></TD></TR>
    
      <TR><TD ALIGN="LEFT" BORDER="0">
      <FONT FACE="Helvetica Bold">id</FONT>
      </TD><TD ALIGN="LEFT">
      <FONT FACE="Helvetica Bold">AutoField</FONT>
      </TD></TR>
    
      <TR><TD ALIGN="LEFT" BORDER="0">
      <FONT FACE="Helvetica Bold">command</FONT>
      </TD><TD ALIGN="LEFT">
      <FONT FACE="Helvetica Bold">ForeignKey (id)</FONT>
      </TD></TR>
    
      <TR><TD ALIGN="LEFT" BORDER="0">
      <FONT FACE="Helvetica Bold">option</FONT>
      </TD><TD ALIGN="LEFT">
      <FONT FACE="Helvetica Bold">ForeignKey (id)</FONT>
      </TD></TR>
    
      <TR><TD ALIGN="LEFT" BORDER="0">
      <FONT COLOR="#7B7B7B" FACE="Helvetica ">dependencies</FONT>
      </TD><TD ALIGN="LEFT">
      <FONT COLOR="#7B7B7B" FACE="Helvetica ">TextField</FONT>
      </TD></TR>
    
      <TR><TD ALIGN="LEFT" BORDER="0">
      <FONT COLOR="#7B7B7B" FACE="Helvetica ">help_text</FONT>
      </TD><TD ALIGN="LEFT">
      <FONT COLOR="#7B7B7B" FACE="Helvetica ">TextField</FONT>
      </TD></TR>
    
      <TR><TD ALIGN="LEFT" BORDER="0">
      <FONT COLOR="#7B7B7B" FACE="Helvetica ">incompatibility</FONT>
      </TD><TD ALIGN="LEFT">
      <FONT COLOR="#7B7B7B" FACE="Helvetica ">TextField</FONT>
      </TD></TR>
    
      <TR><TD ALIGN="LEFT" BORDER="0">
      <FONT FACE="Helvetica ">name</FONT>
      </TD><TD ALIGN="LEFT">
      <FONT FACE="Helvetica ">CharField</FONT>
      </TD></TR>
    
      <TR><TD ALIGN="LEFT" BORDER="0">
      <FONT COLOR="#7B7B7B" FACE="Helvetica ">translate</FONT>
      </TD><TD ALIGN="LEFT">
      <FONT COLOR="#7B7B7B" FACE="Helvetica ">CharField</FONT>
      </TD></TR>
    
      </TABLE>
      >]
  
    testing_models_AdvancedOption [label=<
      <TABLE BGCOLOR="palegoldenrod" BORDER="0" CELLBORDER="0" CELLSPACING="0">
      <TR><TD COLSPAN="2" CELLPADDING="4" ALIGN="CENTER" BGCOLOR="olivedrab4">
      <FONT FACE="Helvetica Bold" COLOR="white">
      AdvancedOption
      </FONT></TD></TR>
    
      <TR><TD ALIGN="LEFT" BORDER="0">
      <FONT FACE="Helvetica Bold">id</FONT>
      </TD><TD ALIGN="LEFT">
      <FONT FACE="Helvetica Bold">AutoField</FONT>
      </TD></TR>
    
      <TR><TD ALIGN="LEFT" BORDER="0">
      <FONT FACE="Helvetica ">input_type</FONT>
      </TD><TD ALIGN="LEFT">
      <FONT FACE="Helvetica ">CharField</FONT>
      </TD></TR>
    
      <TR><TD ALIGN="LEFT" BORDER="0">
      <FONT FACE="Helvetica ">option</FONT>
      </TD><TD ALIGN="LEFT">
      <FONT FACE="Helvetica ">CharField</FONT>
      </TD></TR>
    
      </TABLE>
      >]
  
    testing_models_RobotLibrary [label=<
      <TABLE BGCOLOR="palegoldenrod" BORDER="0" CELLBORDER="0" CELLSPACING="0">
      <TR><TD COLSPAN="2" CELLPADDING="4" ALIGN="CENTER" BGCOLOR="olivedrab4">
      <FONT FACE="Helvetica Bold" COLOR="white">
      RobotLibrary
      </FONT></TD></TR>
    
      <TR><TD ALIGN="LEFT" BORDER="0">
      <FONT FACE="Helvetica Bold">id</FONT>
      </TD><TD ALIGN="LEFT">
      <FONT FACE="Helvetica Bold">AutoField</FONT>
      </TD></TR>
    
      <TR><TD ALIGN="LEFT" BORDER="0">
      <FONT FACE="Helvetica Bold">robot_version</FONT>
      </TD><TD ALIGN="LEFT">
      <FONT FACE="Helvetica Bold">ForeignKey (id)</FONT>
      </TD></TR>
    
      <TR><TD ALIGN="LEFT" BORDER="0">
      <FONT COLOR="#7B7B7B" FACE="Helvetica ">description</FONT>
      </TD><TD ALIGN="LEFT">
      <FONT COLOR="#7B7B7B" FACE="Helvetica ">TextField</FONT>
      </TD></TR>
    
      <TR><TD ALIGN="LEFT" BORDER="0">
      <FONT FACE="Helvetica ">name</FONT>
      </TD><TD ALIGN="LEFT">
      <FONT FACE="Helvetica ">CharField</FONT>
      </TD></TR>
    
      </TABLE>
      >]
  
    testing_models_CustomLibrary [label=<
      <TABLE BGCOLOR="palegoldenrod" BORDER="0" CELLBORDER="0" CELLSPACING="0">
      <TR><TD COLSPAN="2" CELLPADDING="4" ALIGN="CENTER" BGCOLOR="olivedrab4">
      <FONT FACE="Helvetica Bold" COLOR="white">
      CustomLibrary
      </FONT></TD></TR>
    
      <TR><TD ALIGN="LEFT" BORDER="0">
      <FONT FACE="Helvetica Bold">robotlibrary_ptr</FONT>
      </TD><TD ALIGN="LEFT">
      <FONT FACE="Helvetica Bold">OneToOneField (id)</FONT>
      </TD></TR>
    
      <TR><TD ALIGN="LEFT" BORDER="0">
      <FONT FACE="Helvetica Bold">product</FONT>
      </TD><TD ALIGN="LEFT">
      <FONT FACE="Helvetica Bold">ForeignKey (id)</FONT>
      </TD></TR>
    
      </TABLE>
      >]
  
    testing_models_RobotKeyword [label=<
      <TABLE BGCOLOR="palegoldenrod" BORDER="0" CELLBORDER="0" CELLSPACING="0">
      <TR><TD COLSPAN="2" CELLPADDING="4" ALIGN="CENTER" BGCOLOR="olivedrab4">
      <FONT FACE="Helvetica Bold" COLOR="white">
      RobotKeyword
      </FONT></TD></TR>
    
      <TR><TD ALIGN="LEFT" BORDER="0">
      <FONT FACE="Helvetica Bold">id</FONT>
      </TD><TD ALIGN="LEFT">
      <FONT FACE="Helvetica Bold">AutoField</FONT>
      </TD></TR>
    
      <TR><TD ALIGN="LEFT" BORDER="0">
      <FONT FACE="Helvetica Bold">library</FONT>
      </TD><TD ALIGN="LEFT">
      <FONT FACE="Helvetica Bold">ForeignKey (id)</FONT>
      </TD></TR>
    
      <TR><TD ALIGN="LEFT" BORDER="0">
      <FONT COLOR="#7B7B7B" FACE="Helvetica ">docs</FONT>
      </TD><TD ALIGN="LEFT">
      <FONT COLOR="#7B7B7B" FACE="Helvetica ">TextField</FONT>
      </TD></TR>
    
      <TR><TD ALIGN="LEFT" BORDER="0">
      <FONT FACE="Helvetica ">help_text</FONT>
      </TD><TD ALIGN="LEFT">
      <FONT FACE="Helvetica ">CharField</FONT>
      </TD></TR>
    
      <TR><TD ALIGN="LEFT" BORDER="0">
      <FONT FACE="Helvetica ">name</FONT>
      </TD><TD ALIGN="LEFT">
      <FONT FACE="Helvetica ">CharField</FONT>
      </TD></TR>
    
      </TABLE>
      >]
  
    testing_models_CustomKeyword [label=<
      <TABLE BGCOLOR="palegoldenrod" BORDER="0" CELLBORDER="0" CELLSPACING="0">
      <TR><TD COLSPAN="2" CELLPADDING="4" ALIGN="CENTER" BGCOLOR="olivedrab4">
      <FONT FACE="Helvetica Bold" COLOR="white">
      CustomKeyword
      </FONT></TD></TR>
    
      <TR><TD ALIGN="LEFT" BORDER="0">
      <FONT FACE="Helvetica Bold">robotkeyword_ptr</FONT>
      </TD><TD ALIGN="LEFT">
      <FONT FACE="Helvetica Bold">OneToOneField (id)</FONT>
      </TD></TR>
    
      <TR><TD ALIGN="LEFT" BORDER="0">
      <FONT FACE="Helvetica Bold">author</FONT>
      </TD><TD ALIGN="LEFT">
      <FONT FACE="Helvetica Bold">ForeignKey (id)</FONT>
      </TD></TR>
    
      <TR><TD ALIGN="LEFT" BORDER="0">
      <FONT FACE="Helvetica ">json_data</FONT>
      </TD><TD ALIGN="LEFT">
      <FONT FACE="Helvetica ">TextField</FONT>
      </TD></TR>
    
      <TR><TD ALIGN="LEFT" BORDER="0">
      <FONT FACE="Helvetica ">robot_data</FONT>
      </TD><TD ALIGN="LEFT">
      <FONT FACE="Helvetica ">TextField</FONT>
      </TD></TR>
    
      </TABLE>
      >]
  
    testing_models_KeywordOption [label=<
      <TABLE BGCOLOR="palegoldenrod" BORDER="0" CELLBORDER="0" CELLSPACING="0">
      <TR><TD COLSPAN="2" CELLPADDING="4" ALIGN="CENTER" BGCOLOR="olivedrab4">
      <FONT FACE="Helvetica Bold" COLOR="white">
      KeywordOption
      </FONT></TD></TR>
    
      <TR><TD ALIGN="LEFT" BORDER="0">
      <FONT FACE="Helvetica Bold">id</FONT>
      </TD><TD ALIGN="LEFT">
      <FONT FACE="Helvetica Bold">AutoField</FONT>
      </TD></TR>
    
      <TR><TD ALIGN="LEFT" BORDER="0">
      <FONT FACE="Helvetica Bold">keyword</FONT>
      </TD><TD ALIGN="LEFT">
      <FONT FACE="Helvetica Bold">ForeignKey (id)</FONT>
      </TD></TR>
    
      <TR><TD ALIGN="LEFT" BORDER="0">
      <FONT COLOR="#7B7B7B" FACE="Helvetica ">default_value</FONT>
      </TD><TD ALIGN="LEFT">
      <FONT COLOR="#7B7B7B" FACE="Helvetica ">CharField</FONT>
      </TD></TR>
    
      <TR><TD ALIGN="LEFT" BORDER="0">
      <FONT FACE="Helvetica ">name</FONT>
      </TD><TD ALIGN="LEFT">
      <FONT FACE="Helvetica ">CharField</FONT>
      </TD></TR>
    
      </TABLE>
      >]
  
    testing_models_TestCaseRepository [label=<
      <TABLE BGCOLOR="palegoldenrod" BORDER="0" CELLBORDER="0" CELLSPACING="0">
      <TR><TD COLSPAN="2" CELLPADDING="4" ALIGN="CENTER" BGCOLOR="olivedrab4">
      <FONT FACE="Helvetica Bold" COLOR="white">
      TestCaseRepository
      </FONT></TD></TR>
    
      <TR><TD ALIGN="LEFT" BORDER="0">
      <FONT FACE="Helvetica Bold">id</FONT>
      </TD><TD ALIGN="LEFT">
      <FONT FACE="Helvetica Bold">AutoField</FONT>
      </TD></TR>
    
      <TR><TD ALIGN="LEFT" BORDER="0">
      <FONT FACE="Helvetica Bold">product</FONT>
      </TD><TD ALIGN="LEFT">
      <FONT FACE="Helvetica Bold">ForeignKey (id)</FONT>
      </TD></TR>
    
      <TR><TD ALIGN="LEFT" BORDER="0">
      <FONT COLOR="#7B7B7B" FACE="Helvetica ">description</FONT>
      </TD><TD ALIGN="LEFT">
      <FONT COLOR="#7B7B7B" FACE="Helvetica ">TextField</FONT>
      </TD></TR>
    
      <TR><TD ALIGN="LEFT" BORDER="0">
      <FONT FACE="Helvetica ">name</FONT>
      </TD><TD ALIGN="LEFT">
      <FONT FACE="Helvetica ">CharField</FONT>
      </TD></TR>
    
      </TABLE>
      >]
  
    testing_models_TestCase [label=<
      <TABLE BGCOLOR="palegoldenrod" BORDER="0" CELLBORDER="0" CELLSPACING="0">
      <TR><TD COLSPAN="2" CELLPADDING="4" ALIGN="CENTER" BGCOLOR="olivedrab4">
      <FONT FACE="Helvetica Bold" COLOR="white">
      TestCase
      </FONT></TD></TR>
    
      <TR><TD ALIGN="LEFT" BORDER="0">
      <FONT FACE="Helvetica Bold">id</FONT>
      </TD><TD ALIGN="LEFT">
      <FONT FACE="Helvetica Bold">AutoField</FONT>
      </TD></TR>
    
      <TR><TD ALIGN="LEFT" BORDER="0">
      <FONT FACE="Helvetica Bold">author</FONT>
      </TD><TD ALIGN="LEFT">
      <FONT FACE="Helvetica Bold">ForeignKey (id)</FONT>
      </TD></TR>
    
      <TR><TD ALIGN="LEFT" BORDER="0">
      <FONT FACE="Helvetica Bold">phase</FONT>
      </TD><TD ALIGN="LEFT">
      <FONT FACE="Helvetica Bold">ForeignKey (id)</FONT>
      </TD></TR>
    
      <TR><TD ALIGN="LEFT" BORDER="0">
      <FONT FACE="Helvetica Bold">repository</FONT>
      </TD><TD ALIGN="LEFT">
      <FONT FACE="Helvetica Bold">ForeignKey (id)</FONT>
      </TD></TR>
    
      <TR><TD ALIGN="LEFT" BORDER="0">
      <FONT FACE="Helvetica ">help_text</FONT>
      </TD><TD ALIGN="LEFT">
      <FONT FACE="Helvetica ">CharField</FONT>
      </TD></TR>
    
      <TR><TD ALIGN="LEFT" BORDER="0">
      <FONT FACE="Helvetica ">json_data</FONT>
      </TD><TD ALIGN="LEFT">
      <FONT FACE="Helvetica ">TextField</FONT>
      </TD></TR>
    
      <TR><TD ALIGN="LEFT" BORDER="0">
      <FONT FACE="Helvetica ">name</FONT>
      </TD><TD ALIGN="LEFT">
      <FONT FACE="Helvetica ">CharField</FONT>
      </TD></TR>
    
      <TR><TD ALIGN="LEFT" BORDER="0">
      <FONT FACE="Helvetica ">product_version</FONT>
      </TD><TD ALIGN="LEFT">
      <FONT FACE="Helvetica ">CharField</FONT>
      </TD></TR>
    
      <TR><TD ALIGN="LEFT" BORDER="0">
      <FONT FACE="Helvetica ">robot_data</FONT>
      </TD><TD ALIGN="LEFT">
      <FONT FACE="Helvetica ">TextField</FONT>
      </TD></TR>
    
      <TR><TD ALIGN="LEFT" BORDER="0">
      <FONT FACE="Helvetica ">tags</FONT>
      </TD><TD ALIGN="LEFT">
      <FONT FACE="Helvetica ">CharField</FONT>
      </TD></TR>
    
      </TABLE>
      >]
  
    testing_models_TestSuite [label=<
      <TABLE BGCOLOR="palegoldenrod" BORDER="0" CELLBORDER="0" CELLSPACING="0">
      <TR><TD COLSPAN="2" CELLPADDING="4" ALIGN="CENTER" BGCOLOR="olivedrab4">
      <FONT FACE="Helvetica Bold" COLOR="white">
      TestSuite
      </FONT></TD></TR>
    
      <TR><TD ALIGN="LEFT" BORDER="0">
      <FONT FACE="Helvetica Bold">id</FONT>
      </TD><TD ALIGN="LEFT">
      <FONT FACE="Helvetica Bold">AutoField</FONT>
      </TD></TR>
    
      <TR><TD ALIGN="LEFT" BORDER="0">
      <FONT FACE="Helvetica Bold">author</FONT>
      </TD><TD ALIGN="LEFT">
      <FONT FACE="Helvetica Bold">ForeignKey (id)</FONT>
      </TD></TR>
    
      <TR><TD ALIGN="LEFT" BORDER="0">
      <FONT FACE="Helvetica Bold">product</FONT>
      </TD><TD ALIGN="LEFT">
      <FONT FACE="Helvetica Bold">ForeignKey (id)</FONT>
      </TD></TR>
    
      <TR><TD ALIGN="LEFT" BORDER="0">
      <FONT FACE="Helvetica ">json_data</FONT>
      </TD><TD ALIGN="LEFT">
      <FONT FACE="Helvetica ">TextField</FONT>
      </TD></TR>
    
      <TR><TD ALIGN="LEFT" BORDER="0">
      <FONT FACE="Helvetica ">name</FONT>
      </TD><TD ALIGN="LEFT">
      <FONT FACE="Helvetica ">CharField</FONT>
      </TD></TR>
    
      <TR><TD ALIGN="LEFT" BORDER="0">
      <FONT FACE="Helvetica ">robot_data</FONT>
      </TD><TD ALIGN="LEFT">
      <FONT FACE="Helvetica ">TextField</FONT>
      </TD></TR>
    
      </TABLE>
      >]

  }


  // Relations

  django_contrib_admin_models_LogEntry -> django_contrib_auth_models_User
  [label="user (logentry)"] [arrowhead=none, arrowtail=dot, dir=both];

  django_contrib_admin_models_LogEntry -> django_contrib_contenttypes_models_ContentType
  [label="content_type (logentry)"] [arrowhead=none, arrowtail=dot, dir=both];
  django_contrib_auth_models_AbstractBaseUser [label=<
  <TABLE BGCOLOR="palegoldenrod" BORDER="0" CELLBORDER="0" CELLSPACING="0">
  <TR><TD COLSPAN="2" CELLPADDING="4" ALIGN="CENTER" BGCOLOR="olivedrab4">
  <FONT FACE="Helvetica Bold" COLOR="white">AbstractBaseUser</FONT>
  </TD></TR>
  </TABLE>
  >]
  django_contrib_auth_models_AbstractUser -> django_contrib_auth_models_AbstractBaseUser
  [label="abstract\ninheritance"] [arrowhead=empty, arrowtail=none, dir=both];
  django_contrib_auth_models_PermissionsMixin [label=<
  <TABLE BGCOLOR="palegoldenrod" BORDER="0" CELLBORDER="0" CELLSPACING="0">
  <TR><TD COLSPAN="2" CELLPADDING="4" ALIGN="CENTER" BGCOLOR="olivedrab4">
  <FONT FACE="Helvetica Bold" COLOR="white">PermissionsMixin</FONT>
  </TD></TR>
  </TABLE>
  >]
  django_contrib_auth_models_AbstractUser -> django_contrib_auth_models_PermissionsMixin
  [label="abstract\ninheritance"] [arrowhead=empty, arrowtail=none, dir=both];

  django_contrib_auth_models_Permission -> django_contrib_contenttypes_models_ContentType
  [label="content_type (permission)"] [arrowhead=none, arrowtail=dot, dir=both];

  django_contrib_auth_models_Group -> django_contrib_auth_models_Permission
  [label="permissions (group)"] [arrowhead=dot arrowtail=dot, dir=both];

  django_contrib_auth_models_User -> django_contrib_auth_models_Group
  [label="groups (user)"] [arrowhead=dot arrowtail=dot, dir=both];

  django_contrib_auth_models_User -> django_contrib_auth_models_Permission
  [label="user_permissions (user)"] [arrowhead=dot arrowtail=dot, dir=both];

  django_contrib_auth_models_User -> django_contrib_auth_models_AbstractUser
  [label="abstract\ninheritance"] [arrowhead=empty, arrowtail=none, dir=both];

  IBMauth_models_Contact -> django_contrib_auth_models_User
  [label="user (user)"] [arrowhead=none, arrowtail=dot, dir=both];

  IBMauth_models_ContactType -> IBMauth_models_NamedModel
  [label="abstract\ninheritance"] [arrowhead=empty, arrowtail=none, dir=both];

  IBMauth_models_JobFunction -> IBMauth_models_ContactType
  [label="contact_type (jobfunction)"] [arrowhead=none, arrowtail=dot, dir=both];

  IBMauth_models_JobFunction -> IBMauth_models_NamedModel
  [label="abstract\ninheritance"] [arrowhead=empty, arrowtail=none, dir=both];

  IBMauth_models_JoinProjectRequest -> django_contrib_auth_models_User
  [label="user (requests)"] [arrowhead=none, arrowtail=dot, dir=both];

  IBMauth_models_JoinProjectRequest -> django_contrib_auth_models_Group
  [label="group (requests)"] [arrowhead=none, arrowtail=dot, dir=both];

  CTAFramework_models_Product -> CTAFramework_models_RobotFramework
  [label="robot_version (products)"] [arrowhead=none, arrowtail=dot, dir=both];

  CTAFramework_models_Phase -> CTAFramework_models_Product
  [label="product (phases)"] [arrowhead=none, arrowtail=dot, dir=both];

  testing_models_Command -> CTAFramework_models_Product
  [label="product (command)"] [arrowhead=dot arrowtail=dot, dir=both];

  testing_models_CommandOption -> testing_models_Command
  [label="command (commandoption)"] [arrowhead=none, arrowtail=dot, dir=both];

  testing_models_CommandRule -> testing_models_Command
  [label="command (commandrule)"] [arrowhead=none, arrowtail=dot, dir=both];

  testing_models_CommandRule -> testing_models_CommandOption
  [label="option (commandrule)"] [arrowhead=none, arrowtail=dot, dir=both];

  testing_models_CommandRule -> testing_models_CommandOption
  [label="mandatory_options (mandatory_options)"] [arrowhead=dot arrowtail=dot, dir=both];

  testing_models_CommandRule -> testing_models_CommandOption
  [label="optional (optional)"] [arrowhead=dot arrowtail=dot, dir=both];

  testing_models_RobotLibrary -> CTAFramework_models_RobotFramework
  [label="robot_version (libraries)"] [arrowhead=none, arrowtail=dot, dir=both];

  testing_models_CustomLibrary -> CTAFramework_models_Product
  [label="product (custom_libraries)"] [arrowhead=none, arrowtail=dot, dir=both];

  testing_models_CustomLibrary -> testing_models_RobotLibrary
  [label="multi-table\ninheritance"] [arrowhead=empty, arrowtail=none, dir=both];

  testing_models_RobotKeyword -> testing_models_RobotLibrary
  [label="library (keywords)"] [arrowhead=none, arrowtail=dot, dir=both];

  testing_models_CustomKeyword -> django_contrib_auth_models_User
  [label="author (keywords)"] [arrowhead=none, arrowtail=dot, dir=both];

  testing_models_CustomKeyword -> testing_models_RobotKeyword
  [label="multi-table\ninheritance"] [arrowhead=empty, arrowtail=none, dir=both];

  testing_models_KeywordOption -> testing_models_RobotKeyword
  [label="keyword (options)"] [arrowhead=none, arrowtail=dot, dir=both];

  testing_models_TestCaseRepository -> CTAFramework_models_Product
  [label="product (test_case_repositories)"] [arrowhead=none, arrowtail=dot, dir=both];

  testing_models_TestCase -> testing_models_TestCaseRepository
  [label="repository (test_cases)"] [arrowhead=none, arrowtail=dot, dir=both];

  testing_models_TestCase -> CTAFramework_models_Phase
  [label="phase (test_cases)"] [arrowhead=none, arrowtail=dot, dir=both];

  testing_models_TestCase -> django_contrib_auth_models_User
  [label="author (test_cases)"] [arrowhead=none, arrowtail=dot, dir=both];

  testing_models_TestSuite -> CTAFramework_models_Product
  [label="product (test_suites)"] [arrowhead=none, arrowtail=dot, dir=both];

  testing_models_TestSuite -> django_contrib_auth_models_User
  [label="author (test_suites)"] [arrowhead=none, arrowtail=dot, dir=both];

}

