{
    "selected": null,
    "templates": [
        {"type": "item", "id": 2},
        {"type": "variable", "id": 4},
        {"type": "coments", "id": 5},
        {"type": "container", "id": 1, "columns":[[], []]},
        {"type": "elcontainer", "id": 3, "columns":[]}
    ],
    "dropzones": {
        "Keyword": [
        ],
        "Control Flow Sentences": [
              {
                  "type": "variable",
                  "id": "$variable",
                  "valore1":[{ "comando":"$variable", "comentario":"Comentarios de la a a la z", "valor":"valor", "requerido":true}]

              },
              {
                  "type": "coments",
                  "id": "$comment",
                  "valore1":[{ "comando":"Comment", "comentario":"Agregar linea de comentario", "valor":"El comentario de mas valioso es el tuyo", "requerido":true}]

              },
              {
                  "type": "container",
                  "id": "if",
                  "condition":"e.g. test var -eq val",
                  "columns": [
                      [
                          {
                              "type": "item",
                              "id": "true"
                          }
                      ],
                      [
                          {
                              "type": "item",
                              "id": "False"
                          }
                      ]
                  ]
              },
              {
                "type": "elcontainer",
                "id": "for",
                "condition":"e.g.   $# -eq 0",
                "columns": [
                  [
                      {
                          "type": "item",
                          "id": "repetir"
                      }
                  ]
                ]
            }
        ],
        "Linux / AIX ": [

            {
              "type": "item", "id": "-ls",
              "valore1":[{ "comando":"-a","comentario":"Comentarios de la a a la z", "valor":false, "requerido":false}],
              "valore2":[{ "comando":"-x","comentario":"Comentarios de la a a la z", "valor":"Rute-file", "requerido":true}],
              "valore3":[{ "comando":"-l","comentario":"Comentarios de la a a la z", "valor":true, "requerido":false}],
              "valore4":[{ "comando":"-t","comentario":"Comentarios de la a a la z", "valor":true, "requerido":false}],
              "valore5":[{ "comando":"-f","comentario":"Comentarios de la a a la z", "valor":"rute-file", "requerido":true}]
            },
            { "type": "item", "id": "-t", "valore1":[{ "comando":"-a","comentario":"Comentarios de la a a la z", "valor":true, "requerido":false}]},
          {
              "type": "item", "id": "mmbackupconfig",
              "valor1": [{"valor": null, "requerido": false, "id": 27, "comando": "-o ", "comentario": null }],
              "valor2": [{"valor": null, "requerido": true, "id": 28, "comando": null, "comentario": null }],
            }, {
              "type": "item", "id": "mmaddcallback",
              "valor1": [{"valor": null, "requerido": false, "id": 29, "comando": "-N ", "comentario": null }],
              "valor2": [{"valor": null, "requerido": false, "id": 30, "comando": "--params ", "comentario": null }],
              "valor3": [{"valor": null, "requerido": false, "id": 31, "comando": "--priority ", "comentario": null }],
              "valor4": [{"valor": null, "requerido": true, "id": 32, "comando": "--event ", "comentario": null }],
              "valor5": [{"valor": null, "requerido": true, "id": 33, "comando": "--command ", "comentario": null }],
              "valor6": [{"valor": null, "requerido": false, "id": 34, "comando": null, "comentario": null }],
            },

        ],
        "Product": [
            {
              "type": "item", "id": "-ls -xt -P -T ",
              "valore1":[{ }]
                },
            { "type": "item", "id": "-t -f http//:124.0.246.3/file-comand",
              "valore1":[{ }]
            }],
        "RobotFramework": [
            {
              "type": "item", "id": "-ls -xt -P -T ",
              "valore1":[{ }]
                },
            { "type": "item", "id": "-t -f http//:124.0.246.3/file-comand",
              "valore1":[{ }]
            }]
    }
}
